{
  "items": [
    {
      "type": "file",
      "ctime": 1699276279526,
      "path": "Thesis Article sources/Secure, Remote, Dynamic Reconfiguration of FPGAs.md",
      "subpath": "#^f3fb61"
    }
  ]
}