\relax 
\providecommand\babel@aux[2]{}
\@nameuse{bbl@beforestart}
\providecommand\hyper@newdestlabel[2]{}
\providecommand\HyField@AuxAddToFields[1]{}
\providecommand\HyField@AuxAddToCoFields[2]{}
\@input{front/title.aux}
\providecommand\@newglossary[4]{}
\@newglossary{main}{glg}{gls}{glo}
\@newglossary{acronym}{alg}{acr}{acn}
\@newglossary{symbolslist}{slg}{syi}{syg}
\providecommand\@glsorder[1]{}
\providecommand\@istfilename[1]{}
\@istfilename{main.ist}
\@glsorder{word}
\babel@aux{english}{}
\@input{front/3_abstract.aux}
\@input{front/4_frontmatterlists.aux}
\@input{chapters/chapter1.aux}
\@input{chapters/chapter2.aux}
\@input{chapters/chapter3.aux}
\@input{chapters/chapter4.aux}
\bibstyle{ieeetr}
\bibdata{refs_thesis}
\bibcite{aloseel_analytical_2021}{1}
\bibcite{leloglu_review_2016}{2}
\bibcite{lee_blockchain-based_2017}{3}
\bibcite{son_blockchain-based_2019}{4}
\bibcite{castro_evinced_2017}{5}
\bibcite{suomela_answer_2010}{6}
\bibcite{wikipedia_power_2024}{7}
\bibcite{jarus_formalizing_2019}{8}
\bibcite{apple_support_secure_nodate}{9}
\bibcite{kietzmann_performance_2021}{10}
\@writefile{toc}{\contentsline {chapter}{R\'ef\'erences}{51}{section*.36}\protected@file@percent }
\bibcite{kocabas_poster_2011}{11}
\bibcite{siddiqui_evolution_2020}{12}
\bibcite{mead_defeating_2016}{13}
\bibcite{gollmann_computer_2010}{14}
\bibcite{roy_lightweight_2022}{15}
\bibcite{carpent_temporal_2018}{16}
\bibcite{steger_efficient_2018}{17}
\bibcite{kim_integrity_2019}{18}
\bibcite{he_securing_2019}{19}
\bibcite{andrade_managing_2017}{20}
\bibcite{gundogan_reliable_2021}{21}
\bibcite{noauthor_semver_nodate}{22}
\bibcite{kaspersky_what_2023}{23}
\bibcite{anssi_mecanismes_nodate}{24}
\bibcite{zandberg_secure_2019}{25}
\bibcite{mandt_demystifying_nodate}{26}
\bibcite{ledger_what_nodate}{27}
\bibcite{binance_what_nodate}{28}
\bibcite{wikipedia_smart_2023}{29}
\bibcite{augustin_study_2016}{30}
\bibcite{anastasiou_iot_2020}{31}
\bibcite{sun_oat_2020}{32}
\bibcite{beyer_correctness_2016}{33}
\bibcite{eldefrawy_smart_2012}{34}
\bibcite{wikipedia_control_2024}{35}
\bibcite{wikipedia_soundness_2023}{36}
\bibcite{mine_tutorial_2017}{37}
\bibcite{keidel_systematic_2020}{38}
\bibcite{trippel_fuzzing_2022}{39}
\bibcite{vittorini_osmosys_2004}{40}
\bibcite{barbierato_simthesyser_nodate}{41}
\bibcite{kballou_answer_2021}{42}
\bibcite{wu_proof-carrying_2017}{43}
\bibcite{wikipedia_proof-carrying_nodate}{44}
\bibcite{necula_proof-carrying_1997}{45}
\bibcite{matsuno_assurance_2021}{46}
\bibcite{beyer_witness_2015}{47}
\bibcite{satchidanandan_dynamic_2017}{48}
\bibcite{noauthor_hardware_nodate}{49}
\bibcite{salewski_diverse_2005}{50}
\bibcite{apvrille_harmonizing_2019}{51}
\bibcite{hategekimana_secure_2018}{52}
\bibcite{van_bulck_towards_2016}{53}
\bibcite{apvrille_sysml-sec_2015}{54}
\bibcite{apvrille_ttool_2008}{55}
\bibcite{wikipedia_system_2024}{56}
\bibcite{noauthor_fpga_nodate}{57}
\bibcite{apple_support_apple_nodate}{58}
\bibcite{noauthor_what_nodate}{59}
\bibcite{vliegen_secure_2014}{60}
\bibcite{meza_safety_nodate}{61}
\bibcite{hu_hardware_2021}{62}
\bibcite{prada-delgado_trustworthy_2017}{63}
\bibcite{schulz_short_2011}{64}
\bibcite{wikipedia_johnsonnyquist_2024}{65}
\bibcite{wikipedia_atmospheric_2024}{66}
\bibcite{dodis_fuzzy_2004}{67}
\bibcite{tuyls_rfid-tags_2006}{68}
\bibcite{kong_pufatt_2014}{69}
\bibcite{noauthor_introduction_nodate}{70}
\bibcite{wulf_survey_2021}{71}
\bibcite{bobda_synthesis_2019}{72}
\bibcite{jin_kang_iotbox_2021}{73}
\bibcite{wikipedia_sandbox_2024}{74}
\citation{*}
\@writefile{brf}{\backcite{*}{{58}{4}{chapter*.37}}}
\@input{fiches/fiche1.aux}
\@input{fiches/fiche2.aux}
\@input{fiches/fiche3.aux}
\@input{fiches/fiche4.aux}
\@input{chapters/appendixA.aux}
\@writefile{lol}{\providecommand\tocbasic@end@toc@file{}\tocbasic@end@toc@file}
\gdef \@abspage@last{95}
