\relax 
\providecommand\hyper@newdestlabel[2]{}
\citation{aloseel_analytical_2021}
\citation{leloglu_review_2016}
\citation{lee_blockchain-based_2017}
\citation{son_blockchain-based_2019}
\citation{castro_evinced_2017}
\citation{suomela_answer_2010}
\citation{wikipedia_power_2024}
\citation{jarus_formalizing_2019}
\citation{apple_support_secure_nodate}
\citation{kietzmann_performance_2021}
\citation{kocabas_poster_2011}
\citation{siddiqui_evolution_2020}
\citation{mead_defeating_2016}
\@writefile{toc}{\contentsline {chapter}{List of Figures}{vii}{chapter*.7}\protected@file@percent }
\@writefile{brf}{\backcite{aloseel_analytical_2021}{{vii}{(document)}{Doc-Start}}}
\@writefile{brf}{\backcite{leloglu_review_2016}{{vii}{(document)}{Doc-Start}}}
\@writefile{brf}{\backcite{lee_blockchain-based_2017}{{vii}{(document)}{Doc-Start}}}
\@writefile{brf}{\backcite{son_blockchain-based_2019}{{vii}{(document)}{Doc-Start}}}
\@writefile{brf}{\backcite{castro_evinced_2017}{{vii}{(document)}{Doc-Start}}}
\@writefile{brf}{\backcite{suomela_answer_2010}{{vii}{(document)}{Doc-Start}}}
\@writefile{brf}{\backcite{wikipedia_power_2024}{{vii}{(document)}{Doc-Start}}}
\@writefile{brf}{\backcite{jarus_formalizing_2019}{{vii}{(document)}{Doc-Start}}}
\@writefile{brf}{\backcite{apple_support_secure_nodate}{{vii}{(document)}{Doc-Start}}}
\@writefile{brf}{\backcite{kietzmann_performance_2021}{{vii}{(document)}{Doc-Start}}}
\@writefile{brf}{\backcite{kocabas_poster_2011}{{vii}{(document)}{Doc-Start}}}
\@writefile{brf}{\backcite{siddiqui_evolution_2020}{{vii}{(document)}{Doc-Start}}}
\@writefile{brf}{\backcite{mead_defeating_2016}{{vii}{(document)}{Doc-Start}}}
\citation{castro_evinced_2017}
\@writefile{brf}{\backcite{castro_evinced_2017}{{ix}{(document)}{Doc-Start}}}
\@writefile{toc}{\contentsline {chapter}{Listings}{ix}{chapter*.8}\protected@file@percent }
\@setckpt{front/4_frontmatterlists}{
\setcounter{page}{10}
\setcounter{equation}{0}
\setcounter{enumi}{0}
\setcounter{enumii}{0}
\setcounter{enumiii}{0}
\setcounter{enumiv}{0}
\setcounter{footnote}{0}
\setcounter{mpfootnote}{0}
\setcounter{part}{0}
\setcounter{chapter}{0}
\setcounter{section}{0}
\setcounter{subsection}{0}
\setcounter{subsubsection}{0}
\setcounter{paragraph}{0}
\setcounter{subparagraph}{0}
\setcounter{figure}{0}
\setcounter{table}{0}
\setcounter{LT@tables}{0}
\setcounter{LT@chunks}{0}
\setcounter{caption@flags}{0}
\setcounter{continuedfloat}{0}
\setcounter{section@level}{0}
\setcounter{Item}{0}
\setcounter{Hfootnote}{0}
\setcounter{bookmark@seq@number}{6}
\setcounter{lstnumber}{1}
\setcounter{parentequation}{0}
\setcounter{su@anzahl}{0}
\setcounter{theorem}{0}
\setcounter{corollary}{0}
\setcounter{lemma}{0}
\setcounter{float@type}{8}
\setcounter{subfigure}{0}
\setcounter{subtable}{0}
\setcounter{lstlisting}{0}
}
