\relax 
\providecommand\hyper@newdestlabel[2]{}
\@writefile{toc}{\contentsline {chapter}{\numberline {C}Sheet nº3}{69}{appendix.C}\protected@file@percent }
\@writefile{lof}{\addvspace {10\p@ }}
\@writefile{lot}{\addvspace {10\p@ }}
\newlabel{app:Fiche3}{{C}{69}{Sheet nº3}{appendix.C}{}}
\@writefile{toc}{\contentsline {section}{\numberline {C.1}Description of the article}{69}{section.C.1}\protected@file@percent }
\@writefile{toc}{\contentsline {paragraph}{Title~:}{69}{section*.64}\protected@file@percent }
\@writefile{toc}{\contentsline {paragraph}{Link~:}{69}{section*.65}\protected@file@percent }
\@writefile{toc}{\contentsline {paragraph}{Authors list~:}{69}{section*.66}\protected@file@percent }
\@writefile{toc}{\contentsline {paragraph}{Authors affiliation~:\newline  }{69}{section*.67}\protected@file@percent }
\@writefile{toc}{\contentsline {paragraph}{Name of the conference / journal~:\newline  }{69}{section*.68}\protected@file@percent }
\@writefile{toc}{\contentsline {paragraph}{Classification of the conference / journal~:}{69}{section*.69}\protected@file@percent }
\@writefile{toc}{\contentsline {paragraph}{Number of article citations (which source?)~:\newline  }{69}{section*.70}\protected@file@percent }
\@writefile{toc}{\contentsline {section}{\numberline {C.2}Synthesis of the article}{70}{section.C.2}\protected@file@percent }
\@writefile{toc}{\contentsline {paragraph}{Question \newline  }{70}{section*.71}\protected@file@percent }
\@writefile{toc}{\contentsline {paragraph}{Possible trails (pointed by the authors) \newline  }{70}{section*.72}\protected@file@percent }
\@writefile{toc}{\contentsline {paragraph}{Research Question \newline  }{71}{section*.73}\protected@file@percent }
\@writefile{toc}{\contentsline {paragraph}{Approach \newline  }{71}{section*.74}\protected@file@percent }
\@writefile{toc}{\contentsline {paragraph}{Implementation of the approach \newline  }{71}{section*.75}\protected@file@percent }
\@writefile{toc}{\contentsline {paragraph}{Results \newline  }{72}{section*.76}\protected@file@percent }
\@setckpt{fiches/fiche3}{
\setcounter{page}{74}
\setcounter{equation}{0}
\setcounter{enumi}{0}
\setcounter{enumii}{0}
\setcounter{enumiii}{0}
\setcounter{enumiv}{74}
\setcounter{footnote}{0}
\setcounter{mpfootnote}{0}
\setcounter{part}{0}
\setcounter{chapter}{3}
\setcounter{section}{2}
\setcounter{subsection}{0}
\setcounter{subsubsection}{0}
\setcounter{paragraph}{0}
\setcounter{subparagraph}{0}
\setcounter{figure}{0}
\setcounter{table}{0}
\setcounter{LT@tables}{0}
\setcounter{LT@chunks}{0}
\setcounter{caption@flags}{2}
\setcounter{continuedfloat}{0}
\setcounter{section@level}{4}
\setcounter{Item}{0}
\setcounter{Hfootnote}{0}
\setcounter{bookmark@seq@number}{51}
\setcounter{lstnumber}{7}
\setcounter{parentequation}{0}
\setcounter{su@anzahl}{0}
\setcounter{theorem}{0}
\setcounter{corollary}{0}
\setcounter{lemma}{0}
\setcounter{float@type}{8}
\setcounter{subfigure}{0}
\setcounter{subtable}{0}
\setcounter{lstlisting}{0}
}
