\relax 
\providecommand\hyper@newdestlabel[2]{}
\@writefile{toc}{\contentsline {chapter}{\numberline {A}Sheet nº1}{59}{appendix.A}\protected@file@percent }
\@writefile{lof}{\addvspace {10\p@ }}
\@writefile{lot}{\addvspace {10\p@ }}
\newlabel{app:Fiche1}{{A}{59}{Sheet nº1}{appendix.A}{}}
\@writefile{toc}{\contentsline {section}{\numberline {A.1}Description of the article}{59}{section.A.1}\protected@file@percent }
\@writefile{toc}{\contentsline {paragraph}{Title~:}{59}{section*.38}\protected@file@percent }
\@writefile{toc}{\contentsline {paragraph}{Link~:}{59}{section*.39}\protected@file@percent }
\@writefile{toc}{\contentsline {paragraph}{Authors list~:\newline  }{59}{section*.40}\protected@file@percent }
\@writefile{toc}{\contentsline {paragraph}{Authors affiliation~:\newline  }{59}{section*.41}\protected@file@percent }
\@writefile{toc}{\contentsline {paragraph}{Name of the conference / journal~:}{59}{section*.42}\protected@file@percent }
\@writefile{toc}{\contentsline {paragraph}{Classification of the conference / journal~:\newline  }{59}{section*.43}\protected@file@percent }
\@writefile{toc}{\contentsline {paragraph}{Number of article citations (which source?)~:\newline  }{59}{section*.44}\protected@file@percent }
\@writefile{toc}{\contentsline {section}{\numberline {A.2}Synthesis of the article}{60}{section.A.2}\protected@file@percent }
\@writefile{toc}{\contentsline {paragraph}{Question \newline  }{60}{section*.45}\protected@file@percent }
\@writefile{toc}{\contentsline {paragraph}{Possible trails (pointed by the authors) \newline  }{60}{section*.46}\protected@file@percent }
\@writefile{toc}{\contentsline {paragraph}{Research Question \newline  }{61}{section*.47}\protected@file@percent }
\@writefile{toc}{\contentsline {paragraph}{Approach \newline  }{62}{section*.48}\protected@file@percent }
\@writefile{toc}{\contentsline {paragraph}{Implementation of the approach \newline  }{62}{section*.49}\protected@file@percent }
\@writefile{toc}{\contentsline {paragraph}{Results \newline  }{62}{section*.50}\protected@file@percent }
\@setckpt{fiches/fiche1}{
\setcounter{page}{63}
\setcounter{equation}{0}
\setcounter{enumi}{0}
\setcounter{enumii}{0}
\setcounter{enumiii}{0}
\setcounter{enumiv}{74}
\setcounter{footnote}{0}
\setcounter{mpfootnote}{0}
\setcounter{part}{0}
\setcounter{chapter}{1}
\setcounter{section}{2}
\setcounter{subsection}{0}
\setcounter{subsubsection}{0}
\setcounter{paragraph}{0}
\setcounter{subparagraph}{0}
\setcounter{figure}{0}
\setcounter{table}{0}
\setcounter{LT@tables}{0}
\setcounter{LT@chunks}{0}
\setcounter{caption@flags}{2}
\setcounter{continuedfloat}{0}
\setcounter{section@level}{4}
\setcounter{Item}{0}
\setcounter{Hfootnote}{0}
\setcounter{bookmark@seq@number}{45}
\setcounter{lstnumber}{7}
\setcounter{parentequation}{0}
\setcounter{su@anzahl}{0}
\setcounter{theorem}{0}
\setcounter{corollary}{0}
\setcounter{lemma}{0}
\setcounter{float@type}{8}
\setcounter{subfigure}{0}
\setcounter{subtable}{0}
\setcounter{lstlisting}{0}
}
