\relax 
\providecommand\hyper@newdestlabel[2]{}
\@writefile{toc}{\contentsline {chapter}{\numberline {D}Sheet nº4}{75}{appendix.D}\protected@file@percent }
\@writefile{lof}{\addvspace {10\p@ }}
\@writefile{lot}{\addvspace {10\p@ }}
\newlabel{app:Fiche4}{{D}{75}{Sheet nº4}{appendix.D}{}}
\@writefile{toc}{\contentsline {section}{\numberline {D.1}Description of the article}{75}{section.D.1}\protected@file@percent }
\@writefile{toc}{\contentsline {paragraph}{Title~:}{75}{section*.77}\protected@file@percent }
\@writefile{toc}{\contentsline {paragraph}{Link~:}{75}{section*.78}\protected@file@percent }
\@writefile{toc}{\contentsline {paragraph}{Authors list~:\newline  }{75}{section*.79}\protected@file@percent }
\@writefile{toc}{\contentsline {paragraph}{Authors affiliation~:\newline  }{75}{section*.80}\protected@file@percent }
\@writefile{toc}{\contentsline {paragraph}{Name of the conference / journal~:}{75}{section*.81}\protected@file@percent }
\@writefile{toc}{\contentsline {paragraph}{Classification of the conference / journal~:\newline  }{75}{section*.82}\protected@file@percent }
\@writefile{toc}{\contentsline {paragraph}{Number of article citations (which source?)~:\newline  }{75}{section*.83}\protected@file@percent }
\@writefile{toc}{\contentsline {section}{\numberline {D.2}Synthesis of the article}{76}{section.D.2}\protected@file@percent }
\@writefile{toc}{\contentsline {paragraph}{Question \newline  }{76}{section*.84}\protected@file@percent }
\@writefile{toc}{\contentsline {paragraph}{Possible trails (pointed by the authors) \newline  }{76}{section*.85}\protected@file@percent }
\@writefile{toc}{\contentsline {paragraph}{Research Question \newline  }{77}{section*.86}\protected@file@percent }
\@writefile{toc}{\contentsline {paragraph}{Approach \newline  }{77}{section*.87}\protected@file@percent }
\@writefile{toc}{\contentsline {paragraph}{Implementation of the approach \newline  }{78}{section*.88}\protected@file@percent }
\@writefile{toc}{\contentsline {paragraph}{Results \newline  }{79}{section*.89}\protected@file@percent }
\@setckpt{fiches/fiche4}{
\setcounter{page}{81}
\setcounter{equation}{0}
\setcounter{enumi}{0}
\setcounter{enumii}{0}
\setcounter{enumiii}{0}
\setcounter{enumiv}{74}
\setcounter{footnote}{0}
\setcounter{mpfootnote}{0}
\setcounter{part}{0}
\setcounter{chapter}{4}
\setcounter{section}{2}
\setcounter{subsection}{0}
\setcounter{subsubsection}{0}
\setcounter{paragraph}{0}
\setcounter{subparagraph}{0}
\setcounter{figure}{0}
\setcounter{table}{0}
\setcounter{LT@tables}{0}
\setcounter{LT@chunks}{0}
\setcounter{caption@flags}{2}
\setcounter{continuedfloat}{0}
\setcounter{section@level}{4}
\setcounter{Item}{0}
\setcounter{Hfootnote}{0}
\setcounter{bookmark@seq@number}{54}
\setcounter{lstnumber}{7}
\setcounter{parentequation}{0}
\setcounter{su@anzahl}{0}
\setcounter{theorem}{0}
\setcounter{corollary}{0}
\setcounter{lemma}{0}
\setcounter{float@type}{8}
\setcounter{subfigure}{0}
\setcounter{subtable}{0}
\setcounter{lstlisting}{0}
}
