\relax 
\providecommand\hyper@newdestlabel[2]{}
\@writefile{toc}{\contentsline {chapter}{\numberline {B}Sheet nº2}{63}{appendix.B}\protected@file@percent }
\@writefile{lof}{\addvspace {10\p@ }}
\@writefile{lot}{\addvspace {10\p@ }}
\newlabel{app:Fiche2}{{B}{63}{Sheet nº2}{appendix.B}{}}
\@writefile{toc}{\contentsline {section}{\numberline {B.1}Description of the article}{63}{section.B.1}\protected@file@percent }
\@writefile{toc}{\contentsline {paragraph}{Title~:}{63}{section*.51}\protected@file@percent }
\@writefile{toc}{\contentsline {paragraph}{Link~:}{63}{section*.52}\protected@file@percent }
\@writefile{toc}{\contentsline {paragraph}{Authors list~:\newline  }{63}{section*.53}\protected@file@percent }
\@writefile{toc}{\contentsline {paragraph}{Authors affiliation~:\newline  }{63}{section*.54}\protected@file@percent }
\@writefile{toc}{\contentsline {paragraph}{Name of the conference / journal~:}{63}{section*.55}\protected@file@percent }
\@writefile{toc}{\contentsline {paragraph}{Classification of the conference / journal~:\newline  }{63}{section*.56}\protected@file@percent }
\@writefile{toc}{\contentsline {paragraph}{Number of article citations (which source?)~:\newline  }{63}{section*.57}\protected@file@percent }
\@writefile{toc}{\contentsline {section}{\numberline {B.2}Synthesis of the article}{64}{section.B.2}\protected@file@percent }
\@writefile{toc}{\contentsline {paragraph}{Question \newline  }{64}{section*.58}\protected@file@percent }
\@writefile{toc}{\contentsline {paragraph}{Possible trails (pointed by the authors) \newline  }{64}{section*.59}\protected@file@percent }
\@writefile{toc}{\contentsline {paragraph}{Research Question \newline  }{65}{section*.60}\protected@file@percent }
\@writefile{toc}{\contentsline {paragraph}{Approach \newline  }{65}{section*.61}\protected@file@percent }
\@writefile{toc}{\contentsline {paragraph}{Implementation of the approach \newline  }{65}{section*.62}\protected@file@percent }
\@writefile{toc}{\contentsline {paragraph}{Results \newline  }{67}{section*.63}\protected@file@percent }
\@setckpt{fiches/fiche2}{
\setcounter{page}{68}
\setcounter{equation}{0}
\setcounter{enumi}{0}
\setcounter{enumii}{0}
\setcounter{enumiii}{0}
\setcounter{enumiv}{74}
\setcounter{footnote}{0}
\setcounter{mpfootnote}{0}
\setcounter{part}{0}
\setcounter{chapter}{2}
\setcounter{section}{2}
\setcounter{subsection}{0}
\setcounter{subsubsection}{0}
\setcounter{paragraph}{0}
\setcounter{subparagraph}{0}
\setcounter{figure}{0}
\setcounter{table}{0}
\setcounter{LT@tables}{0}
\setcounter{LT@chunks}{0}
\setcounter{caption@flags}{2}
\setcounter{continuedfloat}{0}
\setcounter{section@level}{4}
\setcounter{Item}{0}
\setcounter{Hfootnote}{0}
\setcounter{bookmark@seq@number}{48}
\setcounter{lstnumber}{7}
\setcounter{parentequation}{0}
\setcounter{su@anzahl}{0}
\setcounter{theorem}{0}
\setcounter{corollary}{0}
\setcounter{lemma}{0}
\setcounter{float@type}{8}
\setcounter{subfigure}{0}
\setcounter{subtable}{0}
\setcounter{lstlisting}{0}
}
