\relax 
\providecommand\hyper@newdestlabel[2]{}
\@setckpt{chapters/chapter5}{
\setcounter{page}{20}
\setcounter{equation}{0}
\setcounter{enumi}{0}
\setcounter{enumii}{0}
\setcounter{enumiii}{0}
\setcounter{enumiv}{0}
\setcounter{footnote}{0}
\setcounter{mpfootnote}{0}
\setcounter{part}{0}
\setcounter{chapter}{4}
\setcounter{section}{0}
\setcounter{subsection}{0}
\setcounter{subsubsection}{0}
\setcounter{paragraph}{0}
\setcounter{subparagraph}{0}
\setcounter{figure}{0}
\setcounter{table}{0}
\setcounter{LT@tables}{1}
\setcounter{LT@chunks}{2}
\setcounter{caption@flags}{2}
\setcounter{continuedfloat}{0}
\setcounter{section@level}{3}
\setcounter{Item}{0}
\setcounter{Hfootnote}{0}
\setcounter{bookmark@seq@number}{55}
\setcounter{lstnumber}{1}
\setcounter{parentequation}{0}
\setcounter{su@anzahl}{0}
\setcounter{theorem}{0}
\setcounter{corollary}{0}
\setcounter{lemma}{0}
\setcounter{float@type}{8}
\setcounter{subfigure}{0}
\setcounter{subtable}{0}
\setcounter{lstlisting}{0}
}
