\relax 
\providecommand\hyper@newdestlabel[2]{}
\citation{noauthor_hardware_nodate}
\citation{salewski_diverse_2005}
\citation{salewski_diverse_2005}
\@writefile{toc}{\contentsline {chapter}{\numberline {3}Working with hardware}{35}{chapter.3}\protected@file@percent }
\@writefile{lof}{\addvspace {10\p@ }}
\@writefile{lot}{\addvspace {10\p@ }}
\newlabel{Chapter3}{{3}{35}{Working with hardware}{chapter.3}{}}
\@writefile{toc}{\contentsline {section}{\numberline {3.1}How different is it from software in this case study ?}{35}{section.3.1}\protected@file@percent }
\newlabel{sec:Ch.3.1}{{3.1}{35}{How different is it from software in this case study ?}{section.3.1}{}}
\@writefile{toc}{\contentsline {subsection}{\numberline {3.1.1}Differenciation}{35}{subsection.3.1.1}\protected@file@percent }
\newlabel{sec:Ch.3.1.1}{{3.1.1}{35}{Differenciation}{subsection.3.1.1}{}}
\@writefile{brf}{\backcite{noauthor_hardware_nodate}{{35}{3.1.1}{subsection.3.1.1}}}
\@writefile{brf}{\backcite{salewski_diverse_2005}{{35}{3.1.1}{subsection.3.1.1}}}
\citation{apvrille_harmonizing_2019}
\citation{hategekimana_secure_2018}
\citation{van_bulck_towards_2016}
\citation{salewski_diverse_2005}
\citation{apvrille_harmonizing_2019}
\citation{apvrille_sysml-sec_2015}
\citation{apvrille_harmonizing_2019}
\citation{apvrille_ttool_2008}
\citation{apvrille_harmonizing_2019}
\citation{apvrille_harmonizing_2019}
\citation{wikipedia_system_2024}
\citation{noauthor_fpga_nodate}
\citation{apple_support_apple_nodate}
\@writefile{brf}{\backcite{salewski_diverse_2005}{{36}{3.1.1}{subsection.3.1.1}}}
\@writefile{toc}{\contentsline {subsection}{\numberline {3.1.2}Hardware / Software Partitioning}{36}{subsection.3.1.2}\protected@file@percent }
\newlabel{sec:Ch.3.1.2}{{3.1.2}{36}{Hardware / Software Partitioning}{subsection.3.1.2}{}}
\@writefile{brf}{\backcite{apvrille_harmonizing_2019}{{36}{3.1.2}{subsection.3.1.2}}}
\@writefile{brf}{\backcite{hategekimana_secure_2018,van_bulck_towards_2016,salewski_diverse_2005}{{36}{3.1.2}{subsection.3.1.2}}}
\@writefile{brf}{\backcite{apvrille_harmonizing_2019}{{36}{3.1.2}{subsection.3.1.2}}}
\@writefile{brf}{\backcite{apvrille_sysml-sec_2015}{{36}{3.1.2}{subsection.3.1.2}}}
\@writefile{brf}{\backcite{apvrille_harmonizing_2019,apvrille_ttool_2008}{{36}{3.1.2}{subsection.3.1.2}}}
\@writefile{brf}{\backcite{apvrille_harmonizing_2019}{{36}{3.1.2}{subsection.3.1.2}}}
\@writefile{brf}{\backcite{apvrille_harmonizing_2019}{{36}{3.1.2}{subsection.3.1.2}}}
\@writefile{toc}{\contentsline {section}{\numberline {3.2}System on Chip (SoC)}{36}{section.3.2}\protected@file@percent }
\newlabel{sec:Ch.3.2}{{3.2}{36}{System on Chip (SoC)}{section.3.2}{}}
\@writefile{brf}{\backcite{wikipedia_system_2024}{{36}{3.2}{section.3.2}}}
\citation{apple_support_secure_nodate}
\citation{apple_support_secure_nodate}
\citation{mandt_demystifying_nodate}
\citation{apple_support_apple_nodate}
\citation{apple_support_secure_nodate}
\citation{apple_support_secure_nodate}
\citation{kietzmann_performance_2021}
\@writefile{lof}{\contentsline {figure}{\numberline {3.1}{\ignorespaces Apple's SoC schematic \cite  {apple_support_secure_nodate}}}{37}{figure.caption.29}\protected@file@percent }
\@writefile{brf}{\backcite{apple_support_secure_nodate}{{37}{3.1}{figure.caption.29}}}
\@writefile{brf}{\backcite{noauthor_fpga_nodate}{{37}{3.2}{section.3.2}}}
\@writefile{brf}{\backcite{apple_support_apple_nodate}{{37}{3.2}{section.3.2}}}
\@writefile{toc}{\contentsline {subsection}{\numberline {3.2.1}Dedicated crypto-engine}{37}{subsection.3.2.1}\protected@file@percent }
\newlabel{sec:Ch.3.2.1}{{3.2.1}{37}{Dedicated crypto-engine}{subsection.3.2.1}{}}
\@writefile{brf}{\backcite{mandt_demystifying_nodate,apple_support_apple_nodate,apple_support_secure_nodate}{{37}{3.2.1}{subsection.3.2.1}}}
\@writefile{brf}{\backcite{apple_support_secure_nodate}{{37}{3.2.1}{subsection.3.2.1}}}
\citation{kietzmann_performance_2021}
\citation{kietzmann_performance_2021}
\citation{kietzmann_performance_2021}
\citation{kietzmann_performance_2021}
\citation{noauthor_what_nodate}
\citation{apple_support_secure_nodate}
\citation{apple_support_secure_nodate}
\citation{vliegen_secure_2014}
\citation{vliegen_secure_2014}
\citation{vliegen_secure_2014}
\@writefile{lof}{\contentsline {figure}{\numberline {3.2}{\ignorespaces Performance comparison on cryptographic algorithms between software and hardware \cite  {kietzmann_performance_2021}}}{38}{figure.caption.30}\protected@file@percent }
\@writefile{brf}{\backcite{kietzmann_performance_2021}{{38}{3.2}{figure.caption.30}}}
\@writefile{brf}{\backcite{kietzmann_performance_2021}{{38}{3.2.1}{subsection.3.2.1}}}
\@writefile{brf}{\backcite{kietzmann_performance_2021}{{38}{3.2.1}{figure.caption.30}}}
\@writefile{brf}{\backcite{kietzmann_performance_2021}{{38}{3.2.1}{figure.caption.30}}}
\@writefile{brf}{\backcite{noauthor_what_nodate}{{38}{3.2.1}{figure.caption.30}}}
\@writefile{brf}{\backcite{apple_support_secure_nodate}{{38}{3.2.1}{figure.caption.30}}}
\@writefile{brf}{\backcite{apple_support_secure_nodate}{{38}{3.2.1}{figure.caption.30}}}
\citation{gundogan_reliable_2021}
\citation{kietzmann_performance_2021}
\citation{vliegen_secure_2014}
\citation{apple_support_secure_nodate}
\citation{meza_safety_nodate}
\citation{meza_safety_nodate}
\citation{meza_safety_nodate}
\citation{meza_safety_nodate}
\citation{meza_safety_nodate}
\citation{hu_hardware_2021}
\citation{meza_safety_nodate}
\citation{meza_safety_nodate}
\@writefile{brf}{\backcite{vliegen_secure_2014}{{39}{3.2.1}{figure.caption.30}}}
\@writefile{brf}{\backcite{vliegen_secure_2014}{{39}{3.2.1}{figure.caption.30}}}
\@writefile{brf}{\backcite{vliegen_secure_2014}{{39}{3.2.1}{figure.caption.30}}}
\@writefile{brf}{\backcite{gundogan_reliable_2021,kietzmann_performance_2021}{{39}{3.2.1}{figure.caption.30}}}
\@writefile{toc}{\contentsline {subsection}{\numberline {3.2.2}Intra-communication safety verifications}{39}{subsection.3.2.2}\protected@file@percent }
\newlabel{sec:Ch.3.2.2}{{3.2.2}{39}{Intra-communication safety verifications}{subsection.3.2.2}{}}
\@writefile{brf}{\backcite{vliegen_secure_2014,apple_support_secure_nodate}{{39}{3.2.2}{subsection.3.2.2}}}
\@writefile{brf}{\backcite{meza_safety_nodate}{{39}{3.2.2}{subsection.3.2.2}}}
\@writefile{brf}{\backcite{meza_safety_nodate}{{39}{3.2.2}{subsection.3.2.2}}}
\@writefile{brf}{\backcite{meza_safety_nodate}{{39}{3.2.2}{subsection.3.2.2}}}
\@writefile{brf}{\backcite{meza_safety_nodate}{{39}{3.2.2}{subsection.3.2.2}}}
\citation{meza_safety_nodate}
\citation{meza_safety_nodate}
\citation{vliegen_secure_2014}
\citation{vliegen_secure_2014}
\citation{vliegen_secure_2014}
\citation{vliegen_secure_2014}
\citation{vliegen_secure_2014}
\@writefile{brf}{\backcite{meza_safety_nodate,hu_hardware_2021}{{40}{3.2.2}{subsection.3.2.2}}}
\@writefile{brf}{\backcite{meza_safety_nodate}{{40}{3.2.2}{subsection.3.2.2}}}
\@writefile{brf}{\backcite{meza_safety_nodate}{{40}{3.2.2}{subsection.3.2.2}}}
\@writefile{brf}{\backcite{meza_safety_nodate}{{40}{3.2.2}{subsection.3.2.2}}}
\@writefile{brf}{\backcite{meza_safety_nodate}{{40}{3.2.2}{subsection.3.2.2}}}
\@writefile{toc}{\contentsline {subsection}{\numberline {3.2.3}Reconfiguration}{40}{subsection.3.2.3}\protected@file@percent }
\newlabel{sec:Ch.3.2.3}{{3.2.3}{40}{Reconfiguration}{subsection.3.2.3}{}}
\@writefile{brf}{\backcite{vliegen_secure_2014}{{40}{3.2.3}{subsection.3.2.3}}}
\@writefile{brf}{\backcite{vliegen_secure_2014}{{40}{3.2.3}{subsection.3.2.3}}}
\citation{noauthor_fpga_nodate}
\citation{prada-delgado_trustworthy_2017}
\citation{schulz_short_2011}
\citation{apple_support_apple_nodate}
\citation{prada-delgado_trustworthy_2017}
\citation{wikipedia_johnsonnyquist_2024}
\citation{wikipedia_atmospheric_2024}
\citation{schulz_short_2011}
\citation{dodis_fuzzy_2004}
\citation{tuyls_rfid-tags_2006}
\citation{schulz_short_2011}
\citation{schulz_short_2011}
\citation{schulz_short_2011}
\citation{kocabas_poster_2011}
\citation{schulz_short_2011}
\citation{kocabas_poster_2011}
\citation{kong_pufatt_2014}
\citation{castro_evinced_2017}
\@writefile{brf}{\backcite{vliegen_secure_2014}{{41}{3.2.3}{subsection.3.2.3}}}
\@writefile{brf}{\backcite{vliegen_secure_2014}{{41}{3.2.3}{subsection.3.2.3}}}
\@writefile{brf}{\backcite{vliegen_secure_2014}{{41}{3.2.3}{subsection.3.2.3}}}
\@writefile{brf}{\backcite{noauthor_fpga_nodate}{{41}{3.2.3}{subsection.3.2.3}}}
\@writefile{toc}{\contentsline {subsection}{\numberline {3.2.4}Physically Unclonable Functions (PUFs)}{41}{subsection.3.2.4}\protected@file@percent }
\newlabel{sec:Ch.3.2.4}{{3.2.4}{41}{Physically Unclonable Functions (PUFs)}{subsection.3.2.4}{}}
\@writefile{brf}{\backcite{prada-delgado_trustworthy_2017}{{41}{3.2.4}{subsection.3.2.4}}}
\@writefile{brf}{\backcite{schulz_short_2011}{{41}{3.2.4}{subsection.3.2.4}}}
\@writefile{brf}{\backcite{apple_support_apple_nodate,prada-delgado_trustworthy_2017}{{41}{3.2.4}{subsection.3.2.4}}}
\@writefile{brf}{\backcite{wikipedia_johnsonnyquist_2024}{{41}{3.2.4}{subsection.3.2.4}}}
\@writefile{brf}{\backcite{wikipedia_atmospheric_2024}{{41}{3.2.4}{subsection.3.2.4}}}
\@writefile{brf}{\backcite{schulz_short_2011}{{41}{3.2.4}{subsection.3.2.4}}}
\@writefile{brf}{\backcite{dodis_fuzzy_2004,tuyls_rfid-tags_2006}{{41}{3.2.4}{subsection.3.2.4}}}
\@writefile{brf}{\backcite{schulz_short_2011}{{41}{3.2.4}{subsection.3.2.4}}}
\@writefile{brf}{\backcite{schulz_short_2011}{{41}{3.2.4}{subsection.3.2.4}}}
\@writefile{brf}{\backcite{schulz_short_2011}{{41}{3.2.4}{subsection.3.2.4}}}
\@writefile{brf}{\backcite{kocabas_poster_2011}{{41}{3.2.4}{subsection.3.2.4}}}
\@writefile{brf}{\backcite{schulz_short_2011}{{41}{3.2.4}{subsection.3.2.4}}}
\@writefile{brf}{\backcite{kocabas_poster_2011}{{41}{3.2.4}{subsection.3.2.4}}}
\citation{kocabas_poster_2011}
\citation{kocabas_poster_2011}
\citation{prada-delgado_trustworthy_2017}
\citation{prada-delgado_trustworthy_2017}
\citation{prada-delgado_trustworthy_2017}
\citation{prada-delgado_trustworthy_2017}
\citation{prada-delgado_trustworthy_2017}
\citation{prada-delgado_trustworthy_2017}
\@writefile{lof}{\contentsline {figure}{\numberline {3.3}{\ignorespaces Difference between software and hardware based attestation \cite  [Figure 1]{kocabas_poster_2011}}}{42}{figure.caption.31}\protected@file@percent }
\@writefile{brf}{\backcite{kocabas_poster_2011}{{42}{3.3}{figure.caption.31}}}
\@writefile{brf}{\backcite{kong_pufatt_2014}{{42}{3.2.4}{subsection.3.2.4}}}
\@writefile{brf}{\backcite{castro_evinced_2017}{{42}{3.2.4}{subsection.3.2.4}}}
\@writefile{brf}{\backcite{prada-delgado_trustworthy_2017}{{42}{3.2.4}{figure.caption.31}}}
\@writefile{brf}{\backcite{prada-delgado_trustworthy_2017}{{42}{3.2.4}{figure.caption.31}}}
\@writefile{brf}{\backcite{prada-delgado_trustworthy_2017}{{42}{3.2.4}{figure.caption.31}}}
\@writefile{brf}{\backcite{prada-delgado_trustworthy_2017}{{42}{3.2.4}{figure.caption.31}}}
\@writefile{brf}{\backcite{prada-delgado_trustworthy_2017}{{42}{3.2.4}{figure.caption.31}}}
\citation{van_bulck_towards_2016}
\citation{noauthor_introduction_nodate}
\citation{siddiqui_evolution_2020}
\citation{siddiqui_evolution_2020}
\citation{siddiqui_evolution_2020}
\citation{siddiqui_evolution_2020}
\citation{siddiqui_evolution_2020}
\citation{siddiqui_evolution_2020}
\citation{siddiqui_evolution_2020}
\@writefile{brf}{\backcite{prada-delgado_trustworthy_2017}{{43}{3.2.4}{figure.caption.31}}}
\@writefile{toc}{\contentsline {section}{\numberline {3.3}Virtualisation-based Security}{43}{section.3.3}\protected@file@percent }
\newlabel{sec:Ch.3.3}{{3.3}{43}{Virtualisation-based Security}{section.3.3}{}}
\@writefile{toc}{\contentsline {subsection}{\numberline {3.3.1}Protected Module Architectures (PMA)}{43}{subsection.3.3.1}\protected@file@percent }
\newlabel{sec:Ch.3.3.1}{{3.3.1}{43}{Protected Module Architectures (PMA)}{subsection.3.3.1}{}}
\@writefile{brf}{\backcite{van_bulck_towards_2016}{{43}{3.3.1}{subsection.3.3.1}}}
\@writefile{brf}{\backcite{noauthor_introduction_nodate}{{43}{3.3.1}{subsection.3.3.1}}}
\@writefile{brf}{\backcite{siddiqui_evolution_2020}{{43}{3.3.1}{subsection.3.3.1}}}
\@writefile{brf}{\backcite{siddiqui_evolution_2020}{{43}{3.3.1}{subsection.3.3.1}}}
\@writefile{toc}{\contentsline {subsubsection}{Different kinds}{43}{section*.33}\protected@file@percent }
\newlabel{sec:Ch.3.3.1.1}{{3.3.1}{43}{Different kinds}{section*.33}{}}
\citation{siddiqui_evolution_2020}
\citation{siddiqui_evolution_2020}
\citation{siddiqui_evolution_2020}
\citation{van_bulck_towards_2016}
\citation{van_bulck_towards_2016}
\@writefile{lof}{\contentsline {figure}{\numberline {3.4}{\ignorespaces Evolution of Embedded platform security architecture \cite  {siddiqui_evolution_2020}}}{44}{figure.caption.32}\protected@file@percent }
\@writefile{brf}{\backcite{siddiqui_evolution_2020}{{44}{3.4}{figure.caption.32}}}
\@writefile{brf}{\backcite{siddiqui_evolution_2020}{{44}{3.3.1}{section*.33}}}
\@writefile{brf}{\backcite{siddiqui_evolution_2020}{{44}{3.3.1}{section*.33}}}
\@writefile{brf}{\backcite{siddiqui_evolution_2020}{{44}{3.3.1}{section*.33}}}
\@writefile{brf}{\backcite{siddiqui_evolution_2020}{{44}{3.3.1}{section*.33}}}
\@writefile{brf}{\backcite{siddiqui_evolution_2020}{{44}{3.3.1}{section*.33}}}
\@writefile{brf}{\backcite{siddiqui_evolution_2020}{{44}{3.3.1}{section*.33}}}
\@writefile{brf}{\backcite{van_bulck_towards_2016}{{44}{3.3.1}{section*.33}}}
\citation{van_bulck_towards_2016}
\citation{eldefrawy_smart_2012}
\citation{van_bulck_towards_2016}
\citation{siddiqui_evolution_2020}
\citation{siddiqui_evolution_2020}
\citation{wulf_survey_2021}
\citation{bobda_synthesis_2019}
\citation{hategekimana_secure_2018}
\citation{jin_kang_iotbox_2021}
\@writefile{brf}{\backcite{van_bulck_towards_2016}{{45}{3.3.1}{section*.33}}}
\@writefile{brf}{\backcite{van_bulck_towards_2016}{{45}{3.3.1}{section*.33}}}
\@writefile{toc}{\contentsline {subsubsection}{Usage in updates}{45}{section*.34}\protected@file@percent }
\newlabel{sec:Ch.3.3.1.2}{{3.3.1}{45}{Usage in updates}{section*.34}{}}
\@writefile{brf}{\backcite{eldefrawy_smart_2012}{{45}{3.3.1}{section*.34}}}
\@writefile{brf}{\backcite{van_bulck_towards_2016}{{45}{3.3.1}{section*.34}}}
\@writefile{brf}{\backcite{siddiqui_evolution_2020}{{45}{3.3.1}{section*.34}}}
\@writefile{brf}{\backcite{siddiqui_evolution_2020}{{45}{3.3.1}{section*.34}}}
\citation{wikipedia_sandbox_2024}
\citation{mead_defeating_2016}
\citation{bobda_synthesis_2019}
\citation{mead_defeating_2016}
\citation{mead_defeating_2016}
\citation{mead_defeating_2016}
\citation{mead_defeating_2016}
\citation{mead_defeating_2016}
\citation{mead_defeating_2016}
\citation{bobda_synthesis_2019}
\citation{bobda_synthesis_2019}
\citation{bobda_synthesis_2019}
\citation{bobda_synthesis_2019}
\@writefile{toc}{\contentsline {subsection}{\numberline {3.3.2}Hardware Sandboxing}{46}{subsection.3.3.2}\protected@file@percent }
\newlabel{sec:Ch.3.3.2}{{3.3.2}{46}{Hardware Sandboxing}{subsection.3.3.2}{}}
\@writefile{brf}{\backcite{wulf_survey_2021,bobda_synthesis_2019,hategekimana_secure_2018}{{46}{3.3.2}{subsection.3.3.2}}}
\@writefile{brf}{\backcite{jin_kang_iotbox_2021}{{46}{3.3.2}{subsection.3.3.2}}}
\@writefile{brf}{\backcite{wikipedia_sandbox_2024}{{46}{3.3.2}{subsection.3.3.2}}}
\@writefile{brf}{\backcite{mead_defeating_2016}{{46}{3.3.2}{subsection.3.3.2}}}
\@writefile{brf}{\backcite{bobda_synthesis_2019}{{46}{3.3.2}{subsection.3.3.2}}}
\@writefile{brf}{\backcite{mead_defeating_2016}{{46}{3.3.2}{subsection.3.3.2}}}
\@writefile{brf}{\backcite{mead_defeating_2016}{{46}{3.3.2}{subsection.3.3.2}}}
\@writefile{brf}{\backcite{mead_defeating_2016}{{46}{3.3.2}{subsection.3.3.2}}}
\@writefile{brf}{\backcite{mead_defeating_2016}{{46}{3.3.2}{figure.caption.35}}}
\@writefile{brf}{\backcite{bobda_synthesis_2019}{{46}{3.3.2}{figure.caption.35}}}
\@writefile{lof}{\contentsline {figure}{\numberline {3.5}{\ignorespaces Integration of hardware sanboxes described by Mead \textit  {et al.} \cite  {mead_defeating_2016}}}{47}{figure.caption.35}\protected@file@percent }
\@writefile{brf}{\backcite{mead_defeating_2016}{{47}{3.5}{figure.caption.35}}}
\@writefile{brf}{\backcite{bobda_synthesis_2019}{{47}{3.3.2}{figure.caption.35}}}
\@writefile{brf}{\backcite{bobda_synthesis_2019}{{47}{3.3.2}{figure.caption.35}}}
\@writefile{brf}{\backcite{bobda_synthesis_2019}{{47}{3.3.2}{figure.caption.35}}}
\@setckpt{chapters/chapter3}{
\setcounter{page}{49}
\setcounter{equation}{0}
\setcounter{enumi}{0}
\setcounter{enumii}{0}
\setcounter{enumiii}{0}
\setcounter{enumiv}{0}
\setcounter{footnote}{0}
\setcounter{mpfootnote}{0}
\setcounter{part}{0}
\setcounter{chapter}{3}
\setcounter{section}{3}
\setcounter{subsection}{2}
\setcounter{subsubsection}{0}
\setcounter{paragraph}{0}
\setcounter{subparagraph}{0}
\setcounter{figure}{5}
\setcounter{table}{0}
\setcounter{LT@tables}{0}
\setcounter{LT@chunks}{0}
\setcounter{caption@flags}{2}
\setcounter{continuedfloat}{0}
\setcounter{section@level}{2}
\setcounter{Item}{0}
\setcounter{Hfootnote}{0}
\setcounter{bookmark@seq@number}{40}
\setcounter{lstnumber}{7}
\setcounter{parentequation}{0}
\setcounter{su@anzahl}{0}
\setcounter{theorem}{0}
\setcounter{corollary}{0}
\setcounter{lemma}{0}
\setcounter{float@type}{8}
\setcounter{subfigure}{0}
\setcounter{subtable}{0}
\setcounter{lstlisting}{0}
}
