\relax 
\providecommand\hyper@newdestlabel[2]{}
\citation{aloseel_analytical_2021}
\citation{gollmann_computer_2010}
\@writefile{toc}{\contentsline {chapter}{\numberline {1}Introduction}{1}{chapter.1}\protected@file@percent }
\@writefile{lof}{\addvspace {10\p@ }}
\@writefile{lot}{\addvspace {10\p@ }}
\newlabel{Chapter1}{{1}{1}{Introduction}{chapter.1}{}}
\@writefile{brf}{\backcite{aloseel_analytical_2021}{{1}{1}{chapter.1}}}
\@writefile{brf}{\backcite{gollmann_computer_2010}{{1}{1}{chapter.1}}}
\citation{gollmann_computer_2010}
\citation{gollmann_computer_2010}
\citation{aloseel_analytical_2021}
\@writefile{brf}{\backcite{gollmann_computer_2010}{{2}{1}{chapter.1}}}
\@writefile{brf}{\backcite{gollmann_computer_2010}{{2}{1}{chapter.1}}}
\citation{aloseel_analytical_2021}
\citation{aloseel_analytical_2021}
\citation{aloseel_analytical_2021}
\citation{aloseel_analytical_2021}
\@writefile{lof}{\contentsline {figure}{\numberline {1.1}{\ignorespaces Typical architecture of embedded systems by Aloseel \textit  {et al.} \cite  {aloseel_analytical_2021}}}{3}{figure.caption.9}\protected@file@percent }
\@writefile{brf}{\backcite{aloseel_analytical_2021}{{3}{1.1}{figure.caption.9}}}
\@writefile{brf}{\backcite{aloseel_analytical_2021}{{3}{1}{chapter.1}}}
\@writefile{brf}{\backcite{aloseel_analytical_2021}{{3}{1}{figure.caption.9}}}
\citation{leloglu_review_2016}
\citation{leloglu_review_2016}
\citation{leloglu_review_2016}
\@writefile{lof}{\contentsline {figure}{\numberline {1.2}{\ignorespaces Security threats associated with their corresponding layer by Leloglu \cite  {leloglu_review_2016}}}{4}{figure.caption.10}\protected@file@percent }
\@writefile{brf}{\backcite{leloglu_review_2016}{{4}{1.2}{figure.caption.10}}}
\@writefile{brf}{\backcite{aloseel_analytical_2021}{{4}{1}{figure.caption.9}}}
\@writefile{brf}{\backcite{leloglu_review_2016}{{4}{1}{figure.caption.9}}}
\citation{gollmann_computer_2010}
\citation{roy_lightweight_2022}
\citation{roy_lightweight_2022}
\citation{gollmann_computer_2010}
\citation{carpent_temporal_2018}
\@writefile{brf}{\backcite{gollmann_computer_2010}{{5}{1}{figure.caption.10}}}
\@writefile{brf}{\backcite{roy_lightweight_2022}{{5}{1}{figure.caption.10}}}
\@writefile{brf}{\backcite{roy_lightweight_2022}{{5}{1}{figure.caption.10}}}
\@writefile{brf}{\backcite{gollmann_computer_2010}{{5}{1}{figure.caption.10}}}
\@writefile{brf}{\backcite{carpent_temporal_2018}{{6}{1}{figure.caption.10}}}
\@setckpt{chapters/chapter1}{
\setcounter{page}{7}
\setcounter{equation}{0}
\setcounter{enumi}{0}
\setcounter{enumii}{0}
\setcounter{enumiii}{0}
\setcounter{enumiv}{0}
\setcounter{footnote}{0}
\setcounter{mpfootnote}{0}
\setcounter{part}{0}
\setcounter{chapter}{1}
\setcounter{section}{0}
\setcounter{subsection}{0}
\setcounter{subsubsection}{0}
\setcounter{paragraph}{0}
\setcounter{subparagraph}{0}
\setcounter{figure}{2}
\setcounter{table}{0}
\setcounter{LT@tables}{0}
\setcounter{LT@chunks}{0}
\setcounter{caption@flags}{2}
\setcounter{continuedfloat}{0}
\setcounter{section@level}{0}
\setcounter{Item}{0}
\setcounter{Hfootnote}{0}
\setcounter{bookmark@seq@number}{7}
\setcounter{lstnumber}{1}
\setcounter{parentequation}{0}
\setcounter{su@anzahl}{0}
\setcounter{theorem}{0}
\setcounter{corollary}{0}
\setcounter{lemma}{0}
\setcounter{float@type}{8}
\setcounter{subfigure}{0}
\setcounter{subtable}{0}
\setcounter{lstlisting}{0}
}
