\relax 
\providecommand\hyper@newdestlabel[2]{}
\citation{steger_efficient_2018}
\citation{kim_integrity_2019}
\citation{he_securing_2019}
\citation{andrade_managing_2017}
\citation{gundogan_reliable_2021}
\citation{gundogan_reliable_2021}
\citation{gundogan_reliable_2021}
\citation{noauthor_semver_nodate}
\citation{gundogan_reliable_2021}
\@writefile{toc}{\contentsline {chapter}{\numberline {2}Working with Software}{7}{chapter.2}\protected@file@percent }
\@writefile{lof}{\addvspace {10\p@ }}
\@writefile{lot}{\addvspace {10\p@ }}
\newlabel{Chapter2}{{2}{7}{Working with Software}{chapter.2}{}}
\@writefile{toc}{\contentsline {section}{\numberline {2.1}Over the Air (OTA) update}{7}{section.2.1}\protected@file@percent }
\newlabel{sec:Ch.2.1}{{2.1}{7}{Over the Air (OTA) update}{section.2.1}{}}
\@writefile{brf}{\backcite{steger_efficient_2018,kim_integrity_2019}{{7}{2.1}{section.2.1}}}
\@writefile{toc}{\contentsline {subsection}{\numberline {2.1.1}Concept}{7}{subsection.2.1.1}\protected@file@percent }
\newlabel{sec:Ch.2.1.1}{{2.1.1}{7}{Concept}{subsection.2.1.1}{}}
\@writefile{brf}{\backcite{he_securing_2019}{{7}{2.1.1}{subsection.2.1.1}}}
\@writefile{brf}{\backcite{andrade_managing_2017}{{7}{2.1.1}{subsection.2.1.1}}}
\@writefile{brf}{\backcite{gundogan_reliable_2021}{{7}{2.1.1}{subsection.2.1.1}}}
\citation{kim_integrity_2019}
\citation{aloseel_analytical_2021}
\citation{kaspersky_what_2023}
\@writefile{brf}{\backcite{gundogan_reliable_2021}{{8}{2.1.1}{subsection.2.1.1}}}
\@writefile{brf}{\backcite{gundogan_reliable_2021}{{8}{2.1.1}{subsection.2.1.1}}}
\@writefile{brf}{\backcite{noauthor_semver_nodate}{{8}{2.1.1}{subsection.2.1.1}}}
\@writefile{brf}{\backcite{gundogan_reliable_2021}{{8}{2.1.1}{subsection.2.1.1}}}
\@writefile{brf}{\backcite{kim_integrity_2019}{{8}{2.1.1}{subsection.2.1.1}}}
\@writefile{toc}{\contentsline {subsection}{\numberline {2.1.2}Assert trust}{8}{subsection.2.1.2}\protected@file@percent }
\newlabel{sec:Ch.2.1.2}{{2.1.2}{8}{Assert trust}{subsection.2.1.2}{}}
\@writefile{toc}{\contentsline {subsubsection}{Cryptography}{8}{section*.11}\protected@file@percent }
\newlabel{sec:Ch.2.1.2.1}{{2.1.2}{8}{Cryptography}{section*.11}{}}
\@writefile{brf}{\backcite{aloseel_analytical_2021}{{8}{2.1.2}{section*.11}}}
\citation{anssi_mecanismes_nodate}
\citation{zandberg_secure_2019}
\citation{aloseel_analytical_2021}
\citation{mandt_demystifying_nodate}
\@writefile{lof}{\contentsline {figure}{\numberline {2.1}{\ignorespaces Securing data with both private and public key}}{9}{figure.caption.12}\protected@file@percent }
\@writefile{brf}{\backcite{kaspersky_what_2023}{{9}{2.1.2}{section*.11}}}
\@writefile{brf}{\backcite{anssi_mecanismes_nodate}{{9}{2.1.2}{section*.11}}}
\@writefile{brf}{\backcite{zandberg_secure_2019}{{9}{2.1.2}{figure.caption.12}}}
\citation{he_securing_2019}
\citation{ledger_what_nodate}
\citation{binance_what_nodate}
\citation{binance_what_nodate}
\@writefile{brf}{\backcite{aloseel_analytical_2021}{{10}{2.1.2}{figure.caption.12}}}
\@writefile{brf}{\backcite{mandt_demystifying_nodate}{{10}{2.1.2}{figure.caption.12}}}
\@writefile{toc}{\contentsline {subsubsection}{Using the blockchain for certification}{10}{section*.13}\protected@file@percent }
\newlabel{sec:Ch.2.1.2.2}{{2.1.2}{10}{Using the blockchain for certification}{section*.13}{}}
\@writefile{brf}{\backcite{he_securing_2019}{{10}{2.1.2}{section*.13}}}
\@writefile{brf}{\backcite{ledger_what_nodate}{{10}{2.1.2}{section*.13}}}
\@writefile{brf}{\backcite{binance_what_nodate}{{10}{2.1.2}{section*.13}}}
\citation{binance_what_nodate}
\citation{wikipedia_smart_2023}
\citation{lee_blockchain-based_2017}
\citation{lee_blockchain-based_2017}
\citation{lee_blockchain-based_2017}
\citation{son_blockchain-based_2019}
\@writefile{lof}{\contentsline {figure}{\numberline {2.2}{\ignorespaces Lee and Lee's overall procedure \cite  {lee_blockchain-based_2017}}}{11}{figure.caption.14}\protected@file@percent }
\@writefile{brf}{\backcite{lee_blockchain-based_2017}{{11}{2.2}{figure.caption.14}}}
\@writefile{brf}{\backcite{binance_what_nodate}{{11}{2.1.2}{section*.13}}}
\@writefile{brf}{\backcite{binance_what_nodate}{{11}{2.1.2}{section*.13}}}
\@writefile{brf}{\backcite{wikipedia_smart_2023}{{11}{2.1.2}{section*.13}}}
\@writefile{brf}{\backcite{lee_blockchain-based_2017}{{11}{2.1.2}{section*.13}}}
\citation{son_blockchain-based_2019}
\citation{son_blockchain-based_2019}
\citation{son_blockchain-based_2019}
\@writefile{lof}{\contentsline {figure}{\numberline {2.3}{\ignorespaces Son and Kim's blockchain organization \cite  {son_blockchain-based_2019}}}{12}{figure.caption.15}\protected@file@percent }
\@writefile{brf}{\backcite{son_blockchain-based_2019}{{12}{2.3}{figure.caption.15}}}
\@writefile{brf}{\backcite{son_blockchain-based_2019}{{12}{2.1.2}{figure.caption.14}}}
\citation{augustin_study_2016}
\citation{augustin_study_2016}
\citation{anastasiou_iot_2020}
\citation{anastasiou_iot_2020}
\citation{anastasiou_iot_2020}
\citation{anastasiou_iot_2020}
\@writefile{brf}{\backcite{son_blockchain-based_2019}{{13}{2.1.2}{figure.caption.15}}}
\@writefile{brf}{\backcite{augustin_study_2016}{{13}{2.1.2}{figure.caption.15}}}
\@writefile{brf}{\backcite{augustin_study_2016}{{13}{2.1.2}{figure.caption.15}}}
\@writefile{brf}{\backcite{anastasiou_iot_2020}{{13}{2.1.2}{figure.caption.15}}}
\@writefile{brf}{\backcite{anastasiou_iot_2020}{{13}{2.1.2}{figure.caption.15}}}
\@writefile{brf}{\backcite{anastasiou_iot_2020}{{13}{2.1.2}{figure.caption.15}}}
\@writefile{brf}{\backcite{anastasiou_iot_2020}{{14}{2.1.2}{figure.caption.15}}}
\@writefile{toc}{\contentsline {section}{\numberline {2.2}Static analysis}{14}{section.2.2}\protected@file@percent }
\newlabel{sec:Ch.2.2}{{2.2}{14}{Static analysis}{section.2.2}{}}
\citation{castro_evinced_2017}
\citation{castro_evinced_2017}
\citation{sun_oat_2020}
\citation{carpent_temporal_2018}
\citation{beyer_correctness_2016}
\citation{castro_evinced_2017}
\citation{castro_evinced_2017}
\citation{carpent_temporal_2018}
\citation{castro_evinced_2017}
\citation{sun_oat_2020}
\citation{carpent_temporal_2018}
\citation{castro_evinced_2017}
\citation{castro_evinced_2017}
\citation{beyer_correctness_2016}
\citation{sun_oat_2020}
\citation{carpent_temporal_2018}
\citation{castro_evinced_2017}
\@writefile{toc}{\contentsline {subsection}{\numberline {2.2.1}Integrity Verification}{15}{subsection.2.2.1}\protected@file@percent }
\newlabel{sec:Ch.2.2.1}{{2.2.1}{15}{Integrity Verification}{subsection.2.2.1}{}}
\@writefile{toc}{\contentsline {subsubsection}{Concept}{15}{section*.16}\protected@file@percent }
\newlabel{sec:Ch.2.2.1.1}{{2.2.1}{15}{Concept}{section*.16}{}}
\@writefile{brf}{\backcite{castro_evinced_2017}{{15}{2.2.1}{section*.16}}}
\@writefile{brf}{\backcite{castro_evinced_2017,sun_oat_2020,carpent_temporal_2018,beyer_correctness_2016}{{15}{2.2.1}{section*.16}}}
\@writefile{brf}{\backcite{castro_evinced_2017}{{15}{2.2.1}{section*.16}}}
\@writefile{brf}{\backcite{castro_evinced_2017,carpent_temporal_2018}{{15}{2.2.1}{section*.16}}}
\@writefile{brf}{\backcite{castro_evinced_2017,sun_oat_2020,carpent_temporal_2018}{{15}{2.2.1}{section*.16}}}
\@writefile{brf}{\backcite{beyer_correctness_2016}{{15}{2.2.1}{figure.caption.17}}}
\citation{carpent_temporal_2018}
\citation{sun_oat_2020}
\citation{carpent_temporal_2018}
\citation{carpent_temporal_2018}
\citation{eldefrawy_smart_2012}
\citation{carpent_temporal_2018}
\citation{carpent_temporal_2018}
\citation{carpent_temporal_2018}
\citation{carpent_temporal_2018}
\@writefile{lof}{\contentsline {figure}{\numberline {2.4}{\ignorespaces By Castro \textit  {et al.} \cite  {castro_evinced_2017}}}{16}{figure.caption.17}\protected@file@percent }
\@writefile{brf}{\backcite{castro_evinced_2017}{{16}{2.4}{figure.caption.17}}}
\@writefile{toc}{\contentsline {subsubsection}{Remote Attestation}{16}{section*.18}\protected@file@percent }
\newlabel{sec:Ch.2.2.1.2}{{2.2.1}{16}{Remote Attestation}{section*.18}{}}
\@writefile{brf}{\backcite{sun_oat_2020}{{16}{2.2.1}{section*.18}}}
\@writefile{brf}{\backcite{carpent_temporal_2018}{{16}{2.2.1}{section*.18}}}
\@writefile{brf}{\backcite{castro_evinced_2017}{{16}{2.2.1}{section*.18}}}
\@writefile{brf}{\backcite{carpent_temporal_2018}{{16}{2.2.1}{section*.18}}}
\@writefile{brf}{\backcite{sun_oat_2020}{{16}{2.2.1}{section*.18}}}
\@writefile{brf}{\backcite{carpent_temporal_2018}{{16}{2.2.1}{section*.18}}}
\citation{carpent_temporal_2018}
\citation{castro_evinced_2017}
\citation{castro_evinced_2017}
\@writefile{toc}{\contentsline {subsubsection}{Time-consistency}{17}{section*.19}\protected@file@percent }
\newlabel{sec:Ch.2.2.1.3}{{2.2.1}{17}{Time-consistency}{section*.19}{}}
\@writefile{brf}{\backcite{carpent_temporal_2018}{{17}{2.2.1}{section*.19}}}
\@writefile{brf}{\backcite{eldefrawy_smart_2012}{{17}{2.2.1}{section*.19}}}
\@writefile{brf}{\backcite{carpent_temporal_2018}{{17}{2.2.1}{section*.19}}}
\@writefile{brf}{\backcite{carpent_temporal_2018}{{17}{2.2.1}{section*.19}}}
\@writefile{brf}{\backcite{carpent_temporal_2018}{{17}{2.2.1}{section*.19}}}
\@writefile{brf}{\backcite{carpent_temporal_2018}{{17}{2.2.1}{section*.19}}}
\@writefile{brf}{\backcite{carpent_temporal_2018}{{17}{2.2.1}{section*.19}}}
\@writefile{brf}{\backcite{castro_evinced_2017}{{17}{2.2.1}{section*.19}}}
\citation{castro_evinced_2017}
\citation{castro_evinced_2017}
\citation{castro_evinced_2017}
\citation{castro_evinced_2017}
\citation{carpent_temporal_2018}
\@writefile{brf}{\backcite{castro_evinced_2017}{{18}{2.2.1}{section*.19}}}
\newlabel{lst:castro_calc_alg}{{2.1}{18}{Pseudo-code of CalcAlg \cite {castro_evinced_2017}}{lstlisting.2.1}{}}
\@writefile{lol}{\contentsline {lstlisting}{\numberline {2.1}{\ignorespaces Pseudo-code of CalcAlg \cite  {castro_evinced_2017}}}{18}{lstlisting.2.1}\protected@file@percent }
\@writefile{brf}{\backcite{castro_evinced_2017}{{18}{21}{lstnumber.2.1.20}}}
\@writefile{brf}{\backcite{castro_evinced_2017}{{18}{2.2.1}{lstnumber.2.1.20}}}
\@writefile{brf}{\backcite{castro_evinced_2017}{{18}{2.2.1}{lstnumber.2.1.20}}}
\citation{sun_oat_2020}
\citation{sun_oat_2020}
\@writefile{brf}{\backcite{carpent_temporal_2018}{{19}{2.2.1}{lstnumber.2.1.20}}}
\@writefile{toc}{\contentsline {subsubsection}{Capturing the control-flow}{19}{section*.20}\protected@file@percent }
\newlabel{sec:Ch.2.2.1.5}{{2.2.1}{19}{Capturing the control-flow}{section*.20}{}}
\@writefile{brf}{\backcite{sun_oat_2020}{{19}{2.2.1}{section*.20}}}
\@writefile{brf}{\backcite{sun_oat_2020}{{19}{2.2.1}{section*.20}}}
\newlabel{lst:cfg_code}{{2.2}{19}{Code example for CFG}{lstlisting.2.2}{}}
\@writefile{lol}{\contentsline {lstlisting}{\numberline {2.2}{\ignorespaces Code example for CFG}}{19}{lstlisting.2.2}\protected@file@percent }
\citation{wikipedia_control_2024}
\citation{sun_oat_2020}
\citation{sun_oat_2020}
\citation{sun_oat_2020}
\citation{sun_oat_2020}
\@writefile{lof}{\contentsline {figure}{\numberline {2.5}{\ignorespaces CFG based on listing \ref {lst:cfg_code} (generated with code2flow.com)}}{20}{figure.caption.21}\protected@file@percent }
\@writefile{brf}{\backcite{wikipedia_control_2024}{{20}{2.2.1}{figure.caption.21}}}
\@writefile{brf}{\backcite{sun_oat_2020}{{20}{2.2.1}{figure.caption.21}}}
\@writefile{brf}{\backcite{sun_oat_2020}{{20}{2.2.1}{figure.caption.21}}}
\@writefile{brf}{\backcite{sun_oat_2020}{{20}{2.2.1}{figure.caption.21}}}
\@writefile{brf}{\backcite{sun_oat_2020}{{20}{2.2.1}{figure.caption.21}}}
\citation{wikipedia_soundness_2023}
\citation{mine_tutorial_2017}
\citation{keidel_systematic_2020}
\citation{keidel_systematic_2020}
\citation{mine_tutorial_2017}
\@writefile{toc}{\contentsline {subsection}{\numberline {2.2.2}Abstract Interpretation}{21}{subsection.2.2.2}\protected@file@percent }
\newlabel{sec:Ch.2.2.2}{{2.2.2}{21}{Abstract Interpretation}{subsection.2.2.2}{}}
\@writefile{toc}{\contentsline {subsubsection}{Concept}{21}{section*.22}\protected@file@percent }
\newlabel{sec:Ch.2.2.2.1}{{2.2.2}{21}{Concept}{section*.22}{}}
\@writefile{brf}{\backcite{wikipedia_soundness_2023}{{21}{2.2.2}{section*.22}}}
\@writefile{brf}{\backcite{mine_tutorial_2017}{{21}{2.2.2}{section*.22}}}
\@writefile{brf}{\backcite{keidel_systematic_2020}{{21}{2.2.2}{section*.22}}}
\@writefile{brf}{\backcite{keidel_systematic_2020}{{21}{2.2.2}{section*.22}}}
\@writefile{brf}{\backcite{mine_tutorial_2017}{{21}{2.2.2}{section*.22}}}
\newlabel{lst:modulo_code}{{2.3}{22}{Modulo function}{lstlisting.2.3}{}}
\@writefile{lol}{\contentsline {lstlisting}{\numberline {2.3}{\ignorespaces Modulo function}}{22}{lstlisting.2.3}\protected@file@percent }
\citation{mine_tutorial_2017}
\citation{suomela_answer_2010}
\citation{suomela_answer_2010}
\citation{suomela_answer_2010}
\citation{mine_tutorial_2017}
\@writefile{lof}{\contentsline {figure}{\numberline {2.6}{\ignorespaces Suomela's explanation on the difference between invariant and inductive invariant \cite  {suomela_answer_2010}}}{23}{figure.caption.23}\protected@file@percent }
\@writefile{brf}{\backcite{suomela_answer_2010}{{23}{2.6}{figure.caption.23}}}
\@writefile{brf}{\backcite{mine_tutorial_2017}{{23}{2.2.2}{lstnumber.2.3.9}}}
\@writefile{brf}{\backcite{suomela_answer_2010}{{23}{2.2.2}{lstnumber.2.3.9}}}
\@writefile{brf}{\backcite{mine_tutorial_2017}{{23}{2.2.2}{figure.caption.23}}}
\citation{mine_tutorial_2017}
\newlabel{lst:loop_code}{{2.4}{24}{Simple loop code}{lstlisting.2.4}{}}
\@writefile{lol}{\contentsline {lstlisting}{\numberline {2.4}{\ignorespaces Simple loop code}}{24}{lstlisting.2.4}\protected@file@percent }
\citation{mine_tutorial_2017}
\@writefile{brf}{\backcite{mine_tutorial_2017}{{25}{2.2.2}{lstnumber.2.4.6}}}
\newlabel{lst:inf_loop_code}{{2.5}{25}{Infinite loop code}{lstlisting.2.5}{}}
\@writefile{lol}{\contentsline {lstlisting}{\numberline {2.5}{\ignorespaces Infinite loop code}}{25}{lstlisting.2.5}\protected@file@percent }
\citation{jarus_formalizing_2019}
\citation{trippel_fuzzing_2022}
\citation{jarus_formalizing_2019}
\citation{vittorini_osmosys_2004}
\citation{barbierato_simthesyser_nodate}
\citation{jarus_formalizing_2019}
\citation{jarus_formalizing_2019}
\citation{jarus_formalizing_2019}
\@writefile{brf}{\backcite{mine_tutorial_2017}{{26}{2.2.2}{lstnumber.2.5.6}}}
\@writefile{toc}{\contentsline {subsubsection}{How it is being used in Embedded systems}{26}{section*.24}\protected@file@percent }
\newlabel{sec:Ch.2.2.2.2}{{2.2.2}{26}{How it is being used in Embedded systems}{section*.24}{}}
\@writefile{brf}{\backcite{jarus_formalizing_2019}{{26}{2.2.2}{section*.24}}}
\@writefile{brf}{\backcite{trippel_fuzzing_2022}{{26}{2.2.2}{section*.24}}}
\@writefile{brf}{\backcite{jarus_formalizing_2019,vittorini_osmosys_2004,barbierato_simthesyser_nodate}{{26}{2.2.2}{section*.24}}}
\@writefile{brf}{\backcite{jarus_formalizing_2019}{{26}{2.2.2}{section*.24}}}
\citation{wikipedia_power_2024}
\citation{wikipedia_power_2024}
\citation{jarus_formalizing_2019}
\citation{jarus_formalizing_2019}
\citation{kballou_answer_2021}
\citation{jarus_formalizing_2019}
\citation{jarus_formalizing_2019}
\citation{jarus_formalizing_2019}
\@writefile{lof}{\contentsline {figure}{\numberline {2.7}{\ignorespaces Hasse diagram of a powerset of a set of 3 items (Source: \cite  [Wikipedia]{wikipedia_power_2024})}}{27}{figure.caption.25}\protected@file@percent }
\@writefile{brf}{\backcite{wikipedia_power_2024}{{27}{2.7}{figure.caption.25}}}
\@writefile{brf}{\backcite{jarus_formalizing_2019}{{27}{2.2.2}{section*.24}}}
\@writefile{brf}{\backcite{jarus_formalizing_2019}{{27}{2.2.2}{section*.24}}}
\@writefile{brf}{\backcite{jarus_formalizing_2019}{{27}{2.2.2}{figure.caption.25}}}
\@writefile{brf}{\backcite{jarus_formalizing_2019}{{27}{2.2.2}{equation.2.2.2}}}
\@writefile{brf}{\backcite{kballou_answer_2021}{{27}{2.2.2}{equation.2.2.2}}}
\citation{jarus_formalizing_2019}
\citation{jarus_formalizing_2019}
\citation{wu_proof-carrying_2017}
\citation{wu_proof-carrying_2017}
\citation{wu_proof-carrying_2017}
\citation{wikipedia_proof-carrying_nodate}
\citation{necula_proof-carrying_1997}
\@writefile{lof}{\contentsline {figure}{\numberline {2.8}{\ignorespaces Model transformation schematic of Jarus \textit  {et al.} \cite  {jarus_formalizing_2019}}}{28}{figure.caption.26}\protected@file@percent }
\@writefile{brf}{\backcite{jarus_formalizing_2019}{{28}{2.8}{figure.caption.26}}}
\@writefile{brf}{\backcite{jarus_formalizing_2019}{{28}{2.2.2}{equation.2.2.2}}}
\@writefile{brf}{\backcite{jarus_formalizing_2019}{{28}{2.2.2}{equation.2.2.2}}}
\@writefile{brf}{\backcite{jarus_formalizing_2019}{{28}{2.2.2}{equation.2.2.2}}}
\@writefile{toc}{\contentsline {subsection}{\numberline {2.2.3}Proof Carrying Code}{28}{subsection.2.2.3}\protected@file@percent }
\newlabel{sec:Ch.2.2.3}{{2.2.3}{28}{Proof Carrying Code}{subsection.2.2.3}{}}
\@writefile{brf}{\backcite{wu_proof-carrying_2017}{{28}{2.2.3}{subsection.2.2.3}}}
\@writefile{brf}{\backcite{wu_proof-carrying_2017}{{28}{2.2.3}{subsection.2.2.3}}}
\citation{necula_proof-carrying_1997}
\citation{necula_proof-carrying_1997}
\citation{necula_proof-carrying_1997}
\citation{necula_proof-carrying_1997}
\citation{necula_proof-carrying_1997}
\citation{necula_proof-carrying_1997}
\@writefile{brf}{\backcite{wu_proof-carrying_2017}{{29}{2.2.3}{subsection.2.2.3}}}
\@writefile{brf}{\backcite{wikipedia_proof-carrying_nodate}{{29}{2.2.3}{subsection.2.2.3}}}
\@writefile{brf}{\backcite{necula_proof-carrying_1997}{{29}{2.2.3}{subsection.2.2.3}}}
\@writefile{brf}{\backcite{necula_proof-carrying_1997}{{29}{2.2.3}{subsection.2.2.3}}}
\@writefile{brf}{\backcite{necula_proof-carrying_1997}{{29}{2.2.3}{subsection.2.2.3}}}
\@writefile{toc}{\contentsline {subsubsection}{Concept}{29}{section*.27}\protected@file@percent }
\newlabel{sec:Ch.2.2.3.1}{{2.2.3}{29}{Concept}{section*.27}{}}
\@writefile{brf}{\backcite{necula_proof-carrying_1997}{{29}{2.2.3}{section*.27}}}
\@writefile{brf}{\backcite{necula_proof-carrying_1997}{{29}{2.2.3}{section*.27}}}
\@writefile{brf}{\backcite{necula_proof-carrying_1997}{{29}{2.2.3}{section*.27}}}
\citation{beyer_correctness_2016}
\citation{beyer_correctness_2016}
\citation{wu_proof-carrying_2017}
\citation{wu_proof-carrying_2017}
\citation{matsuno_assurance_2021}
\citation{matsuno_assurance_2021}
\citation{beyer_witness_2015}
\citation{beyer_correctness_2016}
\citation{beyer_correctness_2016}
\citation{beyer_correctness_2016}
\@writefile{brf}{\backcite{necula_proof-carrying_1997}{{30}{2.2.3}{section*.27}}}
\@writefile{brf}{\backcite{beyer_correctness_2016}{{30}{2.2.3}{section*.27}}}
\@writefile{brf}{\backcite{beyer_correctness_2016}{{30}{2.2.3}{section*.27}}}
\@writefile{brf}{\backcite{wu_proof-carrying_2017}{{30}{2.2.3}{section*.27}}}
\@writefile{brf}{\backcite{wu_proof-carrying_2017}{{30}{2.2.3}{section*.27}}}
\@writefile{brf}{\backcite{matsuno_assurance_2021}{{30}{2.2.3}{section*.27}}}
\@writefile{brf}{\backcite{matsuno_assurance_2021}{{30}{2.2.3}{section*.27}}}
\@writefile{toc}{\contentsline {subsubsection}{Embedded scenarii}{30}{section*.28}\protected@file@percent }
\newlabel{sec:Ch.2.2.3.2}{{2.2.3}{30}{Embedded scenarii}{section*.28}{}}
\@writefile{brf}{\backcite{beyer_witness_2015}{{30}{2.2.3}{section*.28}}}
\@writefile{brf}{\backcite{beyer_correctness_2016}{{30}{2.2.3}{section*.28}}}
\citation{beyer_correctness_2016}
\citation{beyer_correctness_2016}
\citation{beyer_correctness_2016}
\citation{beyer_correctness_2016}
\citation{beyer_correctness_2016}
\citation{beyer_correctness_2016}
\citation{wu_proof-carrying_2017}
\citation{wu_proof-carrying_2017}
\citation{wu_proof-carrying_2017}
\citation{wu_proof-carrying_2017}
\citation{satchidanandan_dynamic_2017}
\@writefile{brf}{\backcite{beyer_correctness_2016}{{31}{2.2.3}{section*.28}}}
\@writefile{brf}{\backcite{beyer_correctness_2016}{{31}{2.2.3}{section*.28}}}
\@writefile{brf}{\backcite{beyer_correctness_2016}{{31}{2.2.3}{section*.28}}}
\@writefile{brf}{\backcite{beyer_correctness_2016}{{31}{2.2.3}{section*.28}}}
\@writefile{brf}{\backcite{beyer_correctness_2016}{{31}{2.2.3}{section*.28}}}
\@writefile{brf}{\backcite{beyer_correctness_2016}{{31}{2.2.3}{section*.28}}}
\@writefile{brf}{\backcite{beyer_correctness_2016}{{31}{2.2.3}{section*.28}}}
\@writefile{brf}{\backcite{beyer_correctness_2016}{{31}{2.2.3}{section*.28}}}
\@writefile{brf}{\backcite{wu_proof-carrying_2017}{{31}{2.2.3}{section*.28}}}
\citation{wu_proof-carrying_2017}
\citation{wu_proof-carrying_2017}
\citation{wu_proof-carrying_2017}
\@writefile{brf}{\backcite{wu_proof-carrying_2017}{{32}{2.2.3}{section*.28}}}
\@writefile{brf}{\backcite{wu_proof-carrying_2017}{{32}{2.2.3}{section*.28}}}
\@writefile{brf}{\backcite{wu_proof-carrying_2017}{{32}{2.2.3}{section*.28}}}
\@writefile{brf}{\backcite{satchidanandan_dynamic_2017}{{32}{2.2.3}{section*.28}}}
\@writefile{brf}{\backcite{wu_proof-carrying_2017}{{32}{2.2.3}{section*.28}}}
\@writefile{brf}{\backcite{wu_proof-carrying_2017}{{32}{2.2.3}{section*.28}}}
\@writefile{brf}{\backcite{wu_proof-carrying_2017}{{32}{2.2.3}{section*.28}}}
\@writefile{toc}{\contentsline {subsection}{\numberline {2.2.4}Summing up}{32}{subsection.2.2.4}\protected@file@percent }
\newlabel{sec:Ch.2.2.4}{{2.2.4}{32}{Summing up}{subsection.2.2.4}{}}
\@setckpt{chapters/chapter2}{
\setcounter{page}{34}
\setcounter{equation}{2}
\setcounter{enumi}{0}
\setcounter{enumii}{0}
\setcounter{enumiii}{0}
\setcounter{enumiv}{0}
\setcounter{footnote}{0}
\setcounter{mpfootnote}{0}
\setcounter{part}{0}
\setcounter{chapter}{2}
\setcounter{section}{2}
\setcounter{subsection}{4}
\setcounter{subsubsection}{0}
\setcounter{paragraph}{0}
\setcounter{subparagraph}{0}
\setcounter{figure}{8}
\setcounter{table}{0}
\setcounter{LT@tables}{0}
\setcounter{LT@chunks}{0}
\setcounter{caption@flags}{2}
\setcounter{continuedfloat}{0}
\setcounter{section@level}{2}
\setcounter{Item}{0}
\setcounter{Hfootnote}{0}
\setcounter{bookmark@seq@number}{26}
\setcounter{lstnumber}{7}
\setcounter{parentequation}{0}
\setcounter{su@anzahl}{0}
\setcounter{theorem}{0}
\setcounter{corollary}{0}
\setcounter{lemma}{0}
\setcounter{float@type}{8}
\setcounter{subfigure}{0}
\setcounter{subtable}{0}
\setcounter{lstlisting}{5}
}
